…
### Pourcentage de population relative en prison

```r
prison %>%
  mutate(relative_jail_pop = total_jail_pop/total_pop*100) %>%
  select(year, state, county_name, total_pop, total_jail_pop, relative_jail_pop) %>%
  arrange(desc(relative_jail_pop))
```

```
## # A tibble: 147,533 x 6
##     year state county_name        total_pop total_jail_pop relative_jail_p~
##    <dbl> <chr> <chr>                  <dbl>          <dbl>            <dbl>
##  1  1978 MO    Ste. Genevieve Co~         0            2              Inf  
##  2  1979 MO    Ste. Genevieve Co~         0            3              Inf  
##  3  2007 TX    King County              284           50.1             17.6
##  4  2007 TX    Dickens County          2461          423.              17.2
##  5  2004 TX    Reeves County          12721         2153               16.9
##  6  2006 TX    Dickens County          2466          413.              16.7
##  7  2006 TX    King County              285           46.4             16.3
##  8  2003 TX    Reeves County          12910         2085               16.2
##  9  2002 TX    Reeves County          13017         1998               15.3
## 10  2010 LA    East Carroll Pari~      7759         1178               15.2
## # ... with 147,523 more rows
```
…
